station_id,station_number,timestamp,duration,week,week_day,window
S314402,5,    '06-Feb-2017 08:10:00',136,6,2,97
S314402,5,    '24-Jul-2017 12:12:00',86,30,2,146
S318593,10,    '18-Jan-2017 14:23:00',87,3,4,172
S314402,5,    '29-Mar-2017 08:25:00',71,13,4,101
S318593,10,    '15-Nov-2017 17:15:00',62,46,4,207
S318593,10,    '06-Apr-2017 16:33:00',76,14,5,198
S318593,10,'27-Jan-2017 20:34:00',158,4,6,246
S318593,10,    '16-Jun-2017 06:34:00',69,24,6,78
S314402,5,    '07-Oct-2017 17:47:00',123,41,7,213
